index,gen_0,gen_1,gen_2,gen_3,gen_4,gen_5,gen_6,gen_7,gen_8,gen_9,mean,observed
0,0.30111185432599047,0.2333561448423001,0.3179780810390524,0.25752579640156315,0.24459068822535857,0.2950481463014709,0.24819356233667625,0.2649821832736004,0.2564437625941015,0.29361758167154,0.2712847801011654,0.26775072531448074
1,0.4169650234100432,0.30256258996366664,0.4197087785586562,0.3300095969736529,0.3254452615688405,0.39842888772917234,0.3323010333597568,0.34866065929288237,0.33903025583988633,0.38372078193823184,0.3596832868634789,0.333060734631496
2,0.5183764753440914,0.39352074735573345,0.5229075706622023,0.41414975117764424,0.4241429689470209,0.4947525522639043,0.41535017536078306,0.44599329030564455,0.4285060704992706,0.4810158296129877,0.4538715431529282,0.5370576427928468
3,0.5058231755908548,0.38825354311040233,0.518054904852042,0.39602075888087435,0.4081808941784351,0.49063054558090863,0.3804142632963296,0.43484730716206293,0.40558498851614155,0.4818912826392397,0.4409701663807291,0.5729183555667834
4,0.44776694752408674,0.3340944443986559,0.453842570053799,0.3224391804650235,0.33611981375420985,0.443777597280561,0.29487950167993443,0.36648326738280246,0.329488907451744,0.4304531890229013,0.3759345419013718,0.636282622165425
5,0.18663767892394167,0.16923417752352368,0.20195706565867924,0.1395163534115656,0.15211339623002978,0.20234346793416513,0.10722923562257929,0.1594621962494761,0.14089029318746288,0.20113866872271927,0.16605225334641424,0.06703237266402538
6,0.16879114898468509,0.16282148455781958,0.18873543280920937,0.13659705440133782,0.14612646624468634,0.18493729676280965,0.10374214776881852,0.1523676700896228,0.1351036661601773,0.18894062623410046,0.15681629940132671,0.10931161580599709
7,0.16425311300127093,0.16547686727033,0.17681989733240522,0.13812144194607728,0.14367771236273355,0.18281762526136233,0.10714660949571583,0.1515268466571676,0.1366623193929371,0.18465396458025832,0.1551156397300258,0.10430599785345342
8,0.1783586068189271,0.18669579516720206,0.19358817884605126,0.16674089414166982,0.16096064537094984,0.20075558362137375,0.1312540675132373,0.17536158035230065,0.15968106605180302,0.20839628435317706,0.17617927022366917,0.11416562486939764
9,0.2114464583110216,0.2352754375281555,0.23181657602447417,0.21226524228573718,0.2032748431718203,0.24000827771315286,0.16430658148707433,0.21799492334625079,0.20320268765159286,0.25348501808406354,0.21730760456033432,0.1759010297630493
10,0.24750039899866202,0.2597395239935562,0.27037235119924424,0.24391665577188618,0.2363074820501517,0.2727161680626695,0.19300969240955543,0.2451524119588686,0.23746997303533599,0.2840973531114152,0.24902820105913448,0.27988675511966254
11,0.2728806421760071,0.2863624440803198,0.29372965781044325,0.26422165604614,0.26887170900388946,0.29234346510039017,0.21773343518912186,0.2698901943866828,0.2651587616855743,0.3005916779173801,0.2731783643395949,0.35424775882590054
12,0.3067363163860653,0.3272292566479556,0.32077776654418094,0.30205891402099994,0.3100131913592786,0.32582063075405715,0.25622469567113687,0.30412503632919824,0.3066607554608358,0.33077896930728934,0.30904255324809976,0.43148582395947443
13,0.4075375835370077,0.4106454380610282,0.4118438679564386,0.38723247664702065,0.4024501139102582,0.4188992892875664,0.3483767109145058,0.3930126580149657,0.40029810406720595,0.41682648252163307,0.39971227249176305,0.5092871788679983
14,0.6650085708884151,0.6434200488213908,0.638509911019661,0.617713746972022,0.6236427410447981,0.6712180412423081,0.6142208129610207,0.6373340060113598,0.6301959791637326,0.6537742526717968,0.6395038110796505,0.6956966184484029
15,0.7753346993625733,0.7325844852948223,0.7373639404626472,0.7211131325840368,0.7171914744578552,0.7747479964131397,0.7380990837664032,0.7424922426972602,0.731608785168726,0.7539743231987399,0.7424510163406204,0.7916283755751985
16,0.5770343399818756,0.5773980489440119,0.5518669455810447,0.5664777616871419,0.5624164427701123,0.586857240354846,0.5584911645621367,0.5569037727566598,0.5794743275159929,0.568748282077869,0.568566832623169,0.7636127024121688
17,0.7647017121523118,0.7069919194990726,0.731322069402321,0.7277735418719253,0.7058334098428638,0.7588077478151051,0.7519871668977145,0.7322586061956383,0.7322165771809577,0.7408993163611213,0.7352792067219032,0.7363475956831302
18,0.8130227169670747,0.748360244584127,0.7837289491971864,0.7762515580254082,0.755808764754828,0.8038301895476893,0.8018040482581105,0.7755764736400046,0.782286335861173,0.7845221456219148,0.7825191426457516,0.7518327617352467
19,0.7792829061012811,0.7140455737249701,0.7495695288880634,0.7370418179882345,0.7234680917546211,0.7696253968655551,0.7595729962088119,0.7340907586704609,0.7483799993548418,0.7459350668407825,0.7461012136397622,0.7041457753513218
20,0.8390661906826562,0.7806017107883368,0.8114082090538514,0.8021293806757276,0.7909199513917732,0.8284746676293752,0.8280050430361682,0.8012954744756683,0.8123845117303614,0.8071444638658678,0.8101429603329786,0.7441056773754177
21,0.8909435156549075,0.8353054250505169,0.8693615610370105,0.8522534045228577,0.8492633698641485,0.8788580583843325,0.8780951668610472,0.8562485058278401,0.8641547213694726,0.8593451715315292,0.8633828900103662,0.7963727706145229
22,0.9331962724012464,0.8886515632746372,0.9167891976441646,0.9043132637108241,0.9030731037031353,0.9218790774279436,0.9287930426039824,0.9076275417733348,0.9130380501249082,0.9063648265018849,0.9123725939166063,0.8598977520959802
23,0.965706882936795,0.9340110670364932,0.9574521653228019,0.9421318021147363,0.9471831876374617,0.95710165448737,0.9588156301444763,0.9471074231773488,0.9507034756801768,0.9461765337016602,0.9506389822239321,0.916542614780572
24,0.8752231814560398,0.8309872266058456,0.8621936859284823,0.8362128410602852,0.847703721198488,0.8616907411424121,0.8587482776794582,0.8393826232326692,0.8532321193149462,0.8402084420981911,0.8505582859716817,0.8642225930930851
25,0.4966000909870971,0.5207683016235883,0.5106499773751314,0.49157405149824557,0.5043475002540544,0.5139408253142818,0.4585384481087698,0.4717212676078979,0.5071619199480367,0.49539263376196985,0.4970695016479073,0.7519075524353981
26,0.27479836098197225,0.37488143499279586,0.32216403742927036,0.3669875481472644,0.36563534165826467,0.2991855269660708,0.3179903873919785,0.2994962216281825,0.35997281708625317,0.30577716246030434,0.32868888387423567,0.3538209450330536
27,0.46384989871992593,0.5320806711262934,0.4963812901973089,0.5053111215430627,0.5701059404249122,0.449662428090785,0.49643766405645273,0.47442470291536293,0.5330678498034369,0.4451556450649009,0.49664772119424416,0.1339422170053346
28,0.2948459609159331,0.36491835475932444,0.3525467423149998,0.4019756173441096,0.3968333841592775,0.2980624793246953,0.3683142241882896,0.3341398406573288,0.38906815784702187,0.3227993639184692,0.3523504125429449,0.06111848291223591
29,0.19482308134038334,0.2506133594153773,0.24878542523724229,0.33435554667594913,0.26134283416354165,0.21118873096249252,0.29201639308102084,0.24863806819219572,0.28367515291911677,0.25200872769491195,0.2577447319682232,0.09850554612806761
30,0.19081104744104274,0.2874255612011479,0.21905387083959635,0.3509649990621506,0.25080657451422195,0.23067212070585016,0.29502641743239066,0.26721112223513527,0.2852438195191832,0.2768376798258599,0.26540532127765787,0.2829331869683837
31,0.2248008237181484,0.23294376758488672,0.28510552956289414,0.28413179744918593,0.24856820617719924,0.23779968364252693,0.22835768175766638,0.23308274715135857,0.25202114411528903,0.2679982477071932,0.24948096288663488,0.28517624929502955
32,0.3385896556565314,0.30418780042757404,0.3884435945577599,0.38973691506188657,0.32720413616306954,0.34055434346620556,0.36952055409903145,0.33956922320974264,0.3498031829863858,0.36700486818796396,0.3514614273816151,0.2281598252071326
33,0.38467934998579206,0.33054977506526834,0.42136079770096907,0.406878152824968,0.34312114067256094,0.38456928184959066,0.4043615401586502,0.3811570779875505,0.3694243987630576,0.40552123701195275,0.383162275202036,0.4108233994100904
34,0.3248034639569959,0.2979163372491068,0.34673236834523374,0.3437713903474164,0.2905881512900068,0.3358468849430247,0.3342236491276246,0.3222359152618115,0.3141862071967758,0.34760236410051226,0.32579067318185084,0.40301699118887385
35,0.33466072367506394,0.31875042019334904,0.3701282549981282,0.38948858448985607,0.31615441266689026,0.3496058270761538,0.3689175982276678,0.3459532731402616,0.3482083652762249,0.3730777772278843,0.351494523697148,0.46538964525179455
36,0.3236627499702209,0.3123714326704636,0.3606713109907275,0.38176254870482124,0.3158274926421098,0.3369651513158634,0.3560346847485316,0.33303858525771113,0.3444393304566777,0.35982009533978687,0.3424593382096913,0.43200563478217757
37,0.2941055703974007,0.29272428669962586,0.31507665422219494,0.3438187522130536,0.28664806560971373,0.30576527949422816,0.33389286369851573,0.3165620657406152,0.31063559490150805,0.3277037675736084,0.3126932900550464,0.3497695330677597
38,0.40676132883057003,0.39319057753447856,0.4453761650077373,0.48395349168219304,0.4035031733185074,0.41286303643142613,0.47753360176011245,0.4426095322907339,0.4338318047367688,0.45129699245267474,0.4350919704045202,0.5398418841353749
39,0.5479136534608743,0.4444992370409597,0.6129741141475057,0.5936283313864882,0.5045346998166454,0.5281346831929641,0.5988504938370351,0.539217013467172,0.5339205439946327,0.5676510472181465,0.5471323817562423,0.7002309812349226
40,0.5017558847779656,0.3870988627208071,0.5800482077756219,0.5143612545868801,0.4582038511358923,0.47218144111421595,0.5148206563442523,0.47955062456184255,0.46596875079845257,0.5099181027618227,0.4883907636577753,0.5846682036790525
41,0.5334439956443342,0.4202096209190249,0.6125590285290364,0.5574779980110944,0.49839703686582953,0.5026350833330435,0.5578641024151207,0.5120782384827396,0.5107001753386179,0.540048380011533,0.5245413659550375,0.6087705809213134
42,0.6378928783520628,0.5511216354660298,0.6886579511955088,0.6594631467419034,0.6106807597290916,0.6142768466244299,0.668217018611363,0.6222224931165982,0.6256373590151988,0.6384182787543748,0.6316588367606562,0.663198199617938
43,0.7241288993826263,0.6722717465353617,0.7489820989181757,0.7378147014896246,0.7065076262922699,0.7096224072298146,0.74967434403082,0.713149534680558,0.7193452332827147,0.7195837431088395,0.7201080334950805,0.7054725367313323
44,0.7810951965697245,0.7678127299560501,0.7834280439831984,0.7951641544422894,0.7726971818577512,0.7804093342727159,0.8031938264642656,0.77473051259149,0.7865132352911088,0.7783166680259046,0.7823360883454498,0.7286290627961576
45,0.8411072284554733,0.8355833416211963,0.8303074181532555,0.8470247901123208,0.8366714836065303,0.8373020909991914,0.8645005448868323,0.8418770988496038,0.8454175122584479,0.8326775022619184,0.8412469011204771,0.8495942039627462
46,0.8577042015222449,0.8497748920910733,0.8419601068625007,0.8674547952645218,0.851560005569292,0.8537705134374142,0.8866604276635655,0.8576482711442589,0.8647877898258125,0.8480585325255425,0.8579379535906225,0.8425562439975448
